image_date,mean_ndvi,shape_name
2011-06-09,,4.shp
2011-06-09,0.2079670131,8.shp
2011-06-09,,10.shp
2011-06-09,,16.shp
2011-06-09,,7.shp
2011-06-09,0.2038608193,6.shp
2011-06-09,,11.shp
2011-06-09,,14.shp
2011-06-09,,3.shp
2011-06-09,0.217881754,17.shp
2011-06-09,0.1850147247,15.shp
2011-06-09,,9.shp
2011-06-09,,13.shp
2011-06-09,,12.shp
2011-06-09,,2.shp
2011-06-09,,5.shp
2010-07-16,0.1862586439,4.shp
2010-07-16,0.2167698443,8.shp
2010-07-16,0.1671144366,10.shp
2010-07-16,0.1947172433,16.shp
2010-07-16,0.2048736513,7.shp
2010-07-16,0.2235710025,6.shp
2010-07-16,0.2174279988,11.shp
2010-07-16,0.1849965453,14.shp
2010-07-16,0.20619376,3.shp
2010-07-16,0.2442371547,17.shp
2010-07-16,0.2004599124,15.shp
2010-07-16,0.1924780011,9.shp
2010-07-16,0.2209448963,13.shp
2010-07-16,0.1983961761,12.shp
2010-07-16,0.2054615915,2.shp
2010-07-16,0.2112031877,5.shp
2009-05-10,0.1811252832,4.shp
2009-05-10,0.2245613188,8.shp
2009-05-10,0.1742506772,10.shp
2009-05-10,0.2182847261,16.shp
2009-05-10,0.2174533308,7.shp
2009-05-10,0.232780844,6.shp
2009-05-10,0.2286802679,11.shp
2009-05-10,0.2038616091,14.shp
2009-05-10,0.2187981457,3.shp
2009-05-10,0.2520145774,17.shp
2009-05-10,0.2210381031,15.shp
2009-05-10,0.1903443038,9.shp
2009-05-10,0.2277532071,13.shp
2009-05-10,0.2060850263,12.shp
2009-05-10,0.2131355256,2.shp
2009-05-10,0.2269545496,5.shp
2016-06-14,0.1327112019,4.shp
2016-06-14,0.130091548,8.shp
2016-06-14,0.135248363,10.shp
2016-06-14,0.1375967562,16.shp
2016-06-14,0.1409726441,7.shp
2016-06-14,0.1377938986,6.shp
2016-06-14,0.155903101,11.shp
2016-06-14,0.1371084601,14.shp
2016-06-14,0.1505378336,3.shp
2016-06-14,0.1463425457,17.shp
2016-06-14,0.1495665908,15.shp
2016-06-14,0.1478982121,9.shp
2016-06-14,0.1379975677,13.shp
2016-06-14,0.1338904798,12.shp
2016-06-14,0.1370037347,2.shp
2016-06-14,0.1345839947,5.shp
2013-06-06,0.109114334,4.shp
2013-06-06,0.1092689484,8.shp
2013-06-06,0.1233125553,10.shp
2013-06-06,0.100042738,16.shp
2013-06-06,0.1108710021,7.shp
2013-06-06,0.1076879501,6.shp
2013-06-06,0.1048433408,11.shp
2013-06-06,0.1074774787,14.shp
2013-06-06,0.1009733677,3.shp
2013-06-06,0.1089701578,17.shp
2013-06-06,0.1101372764,15.shp
2013-06-06,0.1164605916,9.shp
2013-06-06,0.1054923087,13.shp
2013-06-06,0.1040210724,12.shp
2013-06-06,0.1047116071,2.shp
2013-06-06,0.1089786142,5.shp
2010-05-29,0.2009245306,4.shp
2010-05-29,0.2513366938,8.shp
2010-05-29,0.1734709442,10.shp
2010-05-29,0.2399304211,16.shp
2010-05-29,0.2327147573,7.shp
2010-05-29,0.2574410737,6.shp
2010-05-29,0.2587632835,11.shp
2010-05-29,0.1949145943,14.shp
2010-05-29,0.2417933196,3.shp
2010-05-29,0.2666671276,17.shp
2010-05-29,0.2359073311,15.shp
2010-05-29,0.2258526385,9.shp
2010-05-29,0.2532877028,13.shp
2010-05-29,0.2316456139,12.shp
2010-05-29,0.2379915118,2.shp
2010-05-29,0.2370129973,5.shp
2012-07-29,,4.shp
2012-07-29,0.13966313,8.shp
2012-07-29,0.1505890191,10.shp
2012-07-29,,16.shp
2012-07-29,,7.shp
2012-07-29,,6.shp
2012-07-29,,11.shp
2012-07-29,,14.shp
2012-07-29,,3.shp
2012-07-29,,17.shp
2012-07-29,,15.shp
2012-07-29,0.1519450694,9.shp
2012-07-29,0.1276787519,13.shp
2012-07-29,,12.shp
2012-07-29,,2.shp
2012-07-29,,5.shp
2016-05-29,0.141410023,4.shp
2016-05-29,0.1439479291,8.shp
2016-05-29,0.1431308538,10.shp
2016-05-29,0.15256311,16.shp
2016-05-29,0.1533033103,7.shp
2016-05-29,0.1515680701,6.shp
2016-05-29,0.1657582968,11.shp
2016-05-29,0.1510990262,14.shp
2016-05-29,0.1591617018,3.shp
2016-05-29,0.1640767902,17.shp
2016-05-29,0.1663936526,15.shp
2016-05-29,0.1587991863,9.shp
2016-05-29,0.1505831033,13.shp
2016-05-29,0.1439779699,12.shp
2016-05-29,0.1495692134,2.shp
2016-05-29,0.1529417634,5.shp
2013-06-22,0.0952348784,4.shp
2013-06-22,0.0841671824,8.shp
2013-06-22,0.0934146568,10.shp
2013-06-22,0.0937487632,16.shp
2013-06-22,0.0980889127,7.shp
2013-06-22,0.0821522623,6.shp
2013-06-22,0.1069304049,11.shp
2013-06-22,0.1022750512,14.shp
2013-06-22,0.0989623368,3.shp
2013-06-22,0.0851587057,17.shp
2013-06-22,0.1073152795,15.shp
2013-06-22,0.0949923992,9.shp
2013-06-22,0.0901088566,13.shp
2013-06-22,0.088449508,12.shp
2013-06-22,0.0850516781,2.shp
2013-06-22,0.1007189155,5.shp
2012-05-10,,4.shp
2012-05-10,0.1410876215,8.shp
2012-05-10,,10.shp
2012-05-10,,16.shp
2012-05-10,,7.shp
2012-05-10,0.1407129169,6.shp
2012-05-10,,11.shp
2012-05-10,,14.shp
2012-05-10,0.1363996416,3.shp
2012-05-10,0.137351051,17.shp
2012-05-10,0.1473433971,15.shp
2012-05-10,,9.shp
2012-05-10,,13.shp
2012-05-10,,12.shp
2012-05-10,,2.shp
2012-05-10,,5.shp
2008-06-24,0.193365097,4.shp
2008-06-24,0.2324991226,8.shp
2008-06-24,0.166434139,10.shp
2008-06-24,0.214029029,16.shp
2008-06-24,0.213239342,7.shp
2008-06-24,0.2341514975,6.shp
2008-06-24,0.2143183053,11.shp
2008-06-24,0.2021437436,14.shp
2008-06-24,0.2132621706,3.shp
2008-06-24,0.2494692951,17.shp
2008-06-24,0.2078820616,15.shp
2008-06-24,0.2100790292,9.shp
2008-06-24,0.2300852835,13.shp
2008-06-24,0.2109569311,12.shp
2008-06-24,0.2091777921,2.shp
2008-06-24,0.2195011526,5.shp
2013-07-08,0.1240690351,4.shp
2013-07-08,0.1125333309,8.shp
2013-07-08,0.1278488189,10.shp
2013-07-08,0.1154736504,16.shp
2013-07-08,0.134630084,7.shp
2013-07-08,0.114611052,6.shp
2013-07-08,0.1364830583,11.shp
2013-07-08,0.1176606417,14.shp
2013-07-08,0.1244275868,3.shp
2013-07-08,0.1200961545,17.shp
2013-07-08,0.1237030998,15.shp
2013-07-08,0.1291436106,9.shp
2013-07-08,0.1120969951,13.shp
2013-07-08,0.1160993874,12.shp
2013-07-08,0.1140071154,2.shp
2013-07-08,0.1163079739,5.shp
2008-05-31,0.2080089152,4.shp
2008-05-31,,8.shp
2008-05-31,0.1925238669,10.shp
2008-05-31,0.2459116727,16.shp
2008-05-31,0.2522881925,7.shp
2008-05-31,,6.shp
2008-05-31,,11.shp
2008-05-31,,14.shp
2008-05-31,,3.shp
2008-05-31,,17.shp
2008-05-31,,15.shp
2008-05-31,0.2213936895,9.shp
2008-05-31,0.255328387,13.shp
2008-05-31,0.2194772959,12.shp
2008-05-31,,2.shp
2008-05-31,0.2447549403,5.shp
2009-06-03,,4.shp
2009-06-03,,8.shp
2009-06-03,,10.shp
2009-06-03,,16.shp
2009-06-03,,7.shp
2009-06-03,,6.shp
2009-06-03,,11.shp
2009-06-03,,14.shp
2009-06-03,,3.shp
2009-06-03,,17.shp
2009-06-03,,15.shp
2009-06-03,,9.shp
2009-06-03,,13.shp
2009-06-03,,12.shp
2009-06-03,,2.shp
2009-06-03,,5.shp
2009-07-29,0.1959590614,4.shp
2009-07-29,0.2426057458,8.shp
2009-07-29,0.1758696139,10.shp
2009-07-29,0.2248129547,16.shp
2009-07-29,0.2219382524,7.shp
2009-07-29,0.2444856018,6.shp
2009-07-29,0.2509560585,11.shp
2009-07-29,0.1773370802,14.shp
2009-07-29,0.2375215739,3.shp
2009-07-29,0.2604641914,17.shp
2009-07-29,0.2212147564,15.shp
2009-07-29,0.2068350464,9.shp
2009-07-29,0.2501628399,13.shp
2009-07-29,0.2252571583,12.shp
2009-07-29,0.2294211239,2.shp
2009-07-29,0.2200767249,5.shp
2010-05-13,0.1701086909,4.shp
2010-05-13,0.1819142997,8.shp
2010-05-13,0.1678115129,10.shp
2010-05-13,0.1737909317,16.shp
2010-05-13,0.1946427971,7.shp
2010-05-13,0.1813315004,6.shp
2010-05-13,0.1904644966,11.shp
2010-05-13,,14.shp
2010-05-13,0.1848307997,3.shp
2010-05-13,0.1847486794,17.shp
2010-05-13,,15.shp
2010-05-13,0.1825558841,9.shp
2010-05-13,0.1862741858,13.shp
2010-05-13,0.1823731959,12.shp
2010-05-13,0.1806872487,2.shp
2010-05-13,,5.shp
2011-07-27,0.1162093356,4.shp
2011-07-27,,8.shp
2011-07-27,0.1393874586,10.shp
2011-07-27,0.1104865819,16.shp
2011-07-27,0.122722432,7.shp
2011-07-27,,6.shp
2011-07-27,,11.shp
2011-07-27,,14.shp
2011-07-27,,3.shp
2011-07-27,,17.shp
2011-07-27,,15.shp
2011-07-27,0.1233831346,9.shp
2011-07-27,0.1096033975,13.shp
2011-07-27,0.112491563,12.shp
2011-07-27,0.1217936724,2.shp
2011-07-27,0.1095353514,5.shp
2014-06-01,,4.shp
2014-06-01,0.2144414485,8.shp
2014-06-01,,10.shp
2014-06-01,,16.shp
2014-06-01,,7.shp
2014-06-01,0.2025856078,6.shp
2014-06-01,0.1968348324,11.shp
2014-06-01,0.1809099317,14.shp
2014-06-01,0.1824980229,3.shp
2014-06-01,0.1977183819,17.shp
2014-06-01,0.197821781,15.shp
2014-06-01,,9.shp
2014-06-01,,13.shp
2014-06-01,0.1724133193,12.shp
2014-06-01,0.165015325,2.shp
2014-06-01,0.1973700225,5.shp
2009-07-13,0.1873264313,4.shp
2009-07-13,0.2368256152,8.shp
2009-07-13,0.1719674021,10.shp
2009-07-13,0.2130319327,16.shp
2009-07-13,0.2105020881,7.shp
2009-07-13,0.2349732816,6.shp
2009-07-13,0.2258981168,11.shp
2009-07-13,0.1623441577,14.shp
2009-07-13,0.2187348753,3.shp
2009-07-13,0.2463642508,17.shp
2009-07-13,0.2112582922,15.shp
2009-07-13,0.1940013766,9.shp
2009-07-13,0.2323488593,13.shp
2009-07-13,0.1989856362,12.shp
2009-07-13,0.2087764144,2.shp
2009-07-13,0.2118024975,5.shp
2008-08-03,0.1887293458,4.shp
2008-08-03,0.2536700368,8.shp
2008-08-03,0.1969428062,10.shp
2008-08-03,0.2342683822,16.shp
2008-08-03,0.2181504071,7.shp
2008-08-03,0.2502948046,6.shp
2008-08-03,0.2346022427,11.shp
2008-08-03,0.2196808904,14.shp
2008-08-03,0.2152836323,3.shp
2008-08-03,0.2619977593,17.shp
2008-08-03,0.2226583809,15.shp
2008-08-03,0.2094677091,9.shp
2008-08-03,0.2295176983,13.shp
2008-08-03,0.2055328488,12.shp
2008-08-03,0.2288894653,2.shp
2008-08-03,0.2391368449,5.shp
2011-06-17,0.1519373655,4.shp
2011-06-17,0.1870234311,8.shp
2011-06-17,0.1585041732,10.shp
2011-06-17,0.1696595252,16.shp
2011-06-17,0.1776800603,7.shp
2011-06-17,0.1870058477,6.shp
2011-06-17,0.1813389659,11.shp
2011-06-17,0.1524644196,14.shp
2011-06-17,0.1824137419,3.shp
2011-06-17,0.2004457712,17.shp
2011-06-17,0.1677649468,15.shp
2011-06-17,0.1640661508,9.shp
2011-06-17,0.1822532713,13.shp
2011-06-17,0.1588976383,12.shp
2011-06-17,0.1742297709,2.shp
2011-06-17,0.1701256335,5.shp
2014-07-27,0.2083902955,4.shp
2014-07-27,0.2038461119,8.shp
2014-07-27,0.1924584359,10.shp
2014-07-27,0.2049413621,16.shp
2014-07-27,0.2250837088,7.shp
2014-07-27,0.1954246908,6.shp
2014-07-27,0.2260342836,11.shp
2014-07-27,0.1820081174,14.shp
2014-07-27,0.2033499181,3.shp
2014-07-27,0.1942081302,17.shp
2014-07-27,0.1959589869,15.shp
2014-07-27,0.2384249717,9.shp
2014-07-27,0.2058975697,13.shp
2014-07-27,0.1845809221,12.shp
2014-07-27,0.1972093582,2.shp
2014-07-27,0.1967611164,5.shp
2014-06-09,0.1650022119,4.shp
2014-06-09,0.1801504642,8.shp
2014-06-09,0.1451948136,10.shp
2014-06-09,0.1641417593,16.shp
2014-06-09,0.1728433669,7.shp
2014-06-09,0.1753020287,6.shp
2014-06-09,0.1764035523,11.shp
2014-06-09,0.1527053714,14.shp
2014-06-09,0.1621490419,3.shp
2014-06-09,0.1776551604,17.shp
2014-06-09,0.1695680171,15.shp
2014-06-09,0.1899527907,9.shp
2014-06-09,0.1639899611,13.shp
2014-06-09,0.1502615809,12.shp
2014-06-09,0.1497994959,2.shp
2014-06-09,0.1700660586,5.shp
2015-06-04,0.2126442492,4.shp
2015-06-04,0.2519007325,8.shp
2015-06-04,0.183463037,10.shp
2015-06-04,0.249334842,16.shp
2015-06-04,0.2218407989,7.shp
2015-06-04,0.2493867874,6.shp
2015-06-04,0.228369683,11.shp
2015-06-04,0.2226788998,14.shp
2015-06-04,0.2098869681,3.shp
2015-06-04,0.2500243187,17.shp
2015-06-04,0.239080444,15.shp
2015-06-04,0.2041512728,9.shp
2015-06-04,0.2690766454,13.shp
2015-06-04,0.2125092745,12.shp
2015-06-04,0.2200680226,2.shp
2015-06-04,0.2437859476,5.shp
2008-07-10,0.1955495775,4.shp
2008-07-10,0.2466924787,8.shp
2008-07-10,0.1671144366,10.shp
2008-07-10,0.2056061029,16.shp
2008-07-10,0.2204181403,7.shp
2008-07-10,0.2407644242,6.shp
2008-07-10,0.2401994467,11.shp
2008-07-10,0.2014071792,14.shp
2008-07-10,0.225646764,3.shp
2008-07-10,0.2536240518,17.shp
2008-07-10,0.208471477,15.shp
2008-07-10,0.2042979002,9.shp
2008-07-10,0.2409032881,13.shp
2008-07-10,0.2041851729,12.shp
2008-07-10,0.2159349769,2.shp
2008-07-10,0.2176055908,5.shp
2008-07-18,0.2045060992,4.shp
2008-07-18,0.252674073,8.shp
2008-07-18,0.1843771189,10.shp
2008-07-18,0.2386477441,16.shp
2008-07-18,0.2217966914,7.shp
2008-07-18,0.2544008195,6.shp
2008-07-18,0.2468657643,11.shp
2008-07-18,0.2168509066,14.shp
2008-07-18,0.2401871085,3.shp
2008-07-18,0.2667507529,17.shp
2008-07-18,0.2284499258,15.shp
2008-07-18,0.2229406834,9.shp
2008-07-18,0.2479531467,13.shp
2008-07-18,0.2283762097,12.shp
2008-07-18,0.2211927623,2.shp
2008-07-18,0.2418622226,5.shp
2010-06-06,0.1826679111,4.shp
2010-06-06,0.237377584,8.shp
2010-06-06,0.175305903,10.shp
2010-06-06,0.2168615758,16.shp
2010-06-06,0.2305613905,7.shp
2010-06-06,0.234793365,6.shp
2010-06-06,0.2431398779,11.shp
2010-06-06,0.185976997,14.shp
2010-06-06,0.2246021926,3.shp
2010-06-06,0.2513518035,17.shp
2010-06-06,0.2195101231,15.shp
2010-06-06,0.2033151537,9.shp
2010-06-06,0.2408272326,13.shp
2010-06-06,0.1997631788,12.shp
2010-06-06,0.2215968072,2.shp
2010-06-06,0.2230602056,5.shp
2010-05-21,0.2293803394,4.shp
2010-05-21,,8.shp
2010-05-21,0.1867328435,10.shp
2010-05-21,0.2751906216,16.shp
2010-05-21,0.2565439343,7.shp
2010-05-21,,6.shp
2010-05-21,0.2788479924,11.shp
2010-05-21,0.2010364085,14.shp
2010-05-21,0.2604010403,3.shp
2010-05-21,0.286611706,17.shp
2010-05-21,0.2610885799,15.shp
2010-05-21,0.240186125,9.shp
2010-05-21,0.2777846754,13.shp
2010-05-21,0.2388372421,12.shp
2010-05-21,0.2636826336,2.shp
2010-05-21,0.2536959648,5.shp
2012-06-11,0.1405453831,4.shp
2012-06-11,,8.shp
2012-06-11,0.1515921205,10.shp
2012-06-11,0.1422329247,16.shp
2012-06-11,0.1481573284,7.shp
2012-06-11,,6.shp
2012-06-11,,11.shp
2012-06-11,,14.shp
2012-06-11,,3.shp
2012-06-11,,17.shp
2012-06-11,,15.shp
2012-06-11,0.1462632269,9.shp
2012-06-11,0.1291133016,13.shp
2012-06-11,0.13686122,12.shp
2012-06-11,,2.shp
2012-06-11,0.1446054429,5.shp
2009-06-19,0.1991307884,4.shp
2009-06-19,0.2515668571,8.shp
2009-06-19,0.1768449694,10.shp
2009-06-19,0.2340081036,16.shp
2009-06-19,0.2336281538,7.shp
2009-06-19,0.2511753738,6.shp
2009-06-19,0.2429547608,11.shp
2009-06-19,0.2226478755,14.shp
2009-06-19,0.2362945825,3.shp
2009-06-19,0.270847559,17.shp
2009-06-19,0.2353799492,15.shp
2009-06-19,0.2152313292,9.shp
2009-06-19,0.2509096563,13.shp
2009-06-19,0.2324140072,12.shp
2009-06-19,0.2279551774,2.shp
2009-06-19,0.2331539094,5.shp
2010-05-05,0.1963347793,4.shp
2010-05-05,,8.shp
2010-05-05,0.1974053234,10.shp
2010-05-05,0.2343922108,16.shp
2010-05-05,0.248247847,7.shp
2010-05-05,,6.shp
2010-05-05,0.2323034704,11.shp
2010-05-05,0.1821761578,14.shp
2010-05-05,0.2264441848,3.shp
2010-05-05,0.2435842603,17.shp
2010-05-05,0.2191057652,15.shp
2010-05-05,0.2355997562,9.shp
2010-05-05,0.2324482054,13.shp
2010-05-05,0.2061017305,12.shp
2010-05-05,0.2097000331,2.shp
2010-05-05,0.2181471735,5.shp
2009-06-27,0.1916970313,4.shp
2009-06-27,0.2403193116,8.shp
2009-06-27,0.1787928939,10.shp
2009-06-27,0.2253781557,16.shp
2009-06-27,0.2209731042,7.shp
2009-06-27,0.2406853437,6.shp
2009-06-27,0.2396553755,11.shp
2009-06-27,0.2147148103,14.shp
2009-06-27,0.2286112905,3.shp
2009-06-27,0.2625254393,17.shp
2009-06-27,0.2270976156,15.shp
2009-06-27,0.2081709951,9.shp
2009-06-27,0.2404526174,13.shp
2009-06-27,0.2127710432,12.shp
2009-06-27,0.2170115262,2.shp
2009-06-27,0.2328288704,5.shp
2012-05-26,0.1556698084,4.shp
2012-05-26,0.1647116542,8.shp
2012-05-26,0.1589580476,10.shp
2012-05-26,0.1629510224,16.shp
2012-05-26,0.1732235253,7.shp
2012-05-26,0.1629190594,6.shp
2012-05-26,0.179913193,11.shp
2012-05-26,0.1639855504,14.shp
2012-05-26,0.1588146985,3.shp
2012-05-26,0.1629417539,17.shp
2012-05-26,0.1692507863,15.shp
2012-05-26,0.1786694378,9.shp
2012-05-26,0.1432502121,13.shp
2012-05-26,0.1569929421,12.shp
2012-05-26,0.1390103847,2.shp
2012-05-26,0.1728089303,5.shp
2011-07-11,0.1136524752,4.shp
2011-07-11,0.0904317796,8.shp
2011-07-11,,10.shp
2011-07-11,,16.shp
2011-07-11,0.1253821254,7.shp
2011-07-11,0.0917118043,6.shp
2011-07-11,0.1321475506,11.shp
2011-07-11,0.1115906388,14.shp
2011-07-11,0.107551977,3.shp
2011-07-11,0.0899802968,17.shp
2011-07-11,0.1206459031,15.shp
2011-07-11,,9.shp
2011-07-11,,13.shp
2011-07-11,0.1071120426,12.shp
2011-07-11,0.1075840145,2.shp
2011-07-11,0.083603099,5.shp
2009-07-05,0.2095135301,4.shp
2009-07-05,,8.shp
2009-07-05,0.1837089211,10.shp
2009-07-05,0.243903324,16.shp
2009-07-05,0.2394756675,7.shp
2009-07-05,,6.shp
2009-07-05,0.2607077658,11.shp
2009-07-05,0.1988438964,14.shp
2009-07-05,0.2483810037,3.shp
2009-07-05,0.2669562101,17.shp
2009-07-05,0.2413115948,15.shp
2009-07-05,0.2094530612,9.shp
2009-07-05,0.2617028058,13.shp
2009-07-05,0.2315391302,12.shp
2009-07-05,0.2363174707,2.shp
2009-07-05,0.2330614924,5.shp
2011-05-08,0.1713266224,4.shp
2011-05-08,0.2096442729,8.shp
2011-05-08,0.1558287889,10.shp
2011-05-08,0.1885669976,16.shp
2011-05-08,0.2010325491,7.shp
2011-05-08,0.2062323987,6.shp
2011-05-08,0.2021037191,11.shp
2011-05-08,0.1761761755,14.shp
2011-05-08,0.1991812289,3.shp
2011-05-08,0.2208160311,17.shp
2011-05-08,0.1876592636,15.shp
2011-05-08,0.1964425296,9.shp
2011-05-08,0.1946194768,13.shp
2011-05-08,0.1798243225,12.shp
2011-05-08,0.1778613627,2.shp
2011-05-08,0.1943654716,5.shp
2013-07-24,,4.shp
2013-07-24,,8.shp
2013-07-24,,10.shp
2013-07-24,,16.shp
2013-07-24,,7.shp
2013-07-24,,6.shp
2013-07-24,,11.shp
2013-07-24,,14.shp
2013-07-24,,3.shp
2013-07-24,,17.shp
2013-07-24,,15.shp
2013-07-24,,9.shp
2013-07-24,,13.shp
2013-07-24,,12.shp
2013-07-24,,2.shp
2013-07-24,,5.shp
2008-06-08,0.1914918423,4.shp
2008-06-08,0.2449883074,8.shp
2008-06-08,0.1712422669,10.shp
2008-06-08,0.2219610512,16.shp
2008-06-08,0.2213014364,7.shp
2008-06-08,0.2402079254,6.shp
2008-06-08,0.2306479663,11.shp
2008-06-08,0.2104485482,14.shp
2008-06-08,0.2213967443,3.shp
2008-06-08,0.2475961745,17.shp
2008-06-08,0.2183647156,15.shp
2008-06-08,0.2075418234,9.shp
2008-06-08,0.2306564152,13.shp
2008-06-08,0.219332844,12.shp
2008-06-08,0.2146742642,2.shp
2008-06-08,0.2291573286,5.shp
2015-05-27,0.1680780649,4.shp
2015-05-27,0.2211638838,8.shp
2015-05-27,0.1554370672,10.shp
2015-05-27,0.2046616077,16.shp
2015-05-27,0.174889341,7.shp
2015-05-27,0.2169709206,6.shp
2015-05-27,0.1971189827,11.shp
2015-05-27,0.1892184615,14.shp
2015-05-27,0.1685776412,3.shp
2015-05-27,0.2139819413,17.shp
2015-05-27,0.199015215,15.shp
2015-05-27,0.1719148606,9.shp
2015-05-27,0.2421888709,13.shp
2015-05-27,0.1661353409,12.shp
2015-05-27,0.1676584333,2.shp
2015-05-27,0.1991572082,5.shp
2014-07-11,0.1756591499,4.shp
2014-07-11,0.1702508479,8.shp
2014-07-11,0.1550779939,10.shp
2014-07-11,0.1868737489,16.shp
2014-07-11,0.1806060374,7.shp
2014-07-11,0.1684741229,6.shp
2014-07-11,0.1874664724,11.shp
2014-07-11,0.1571848691,14.shp
2014-07-11,0.170576483,3.shp
2014-07-11,0.1680936962,17.shp
2014-07-11,0.1712872535,15.shp
2014-07-11,0.1944831163,9.shp
2014-07-11,0.1696920991,13.shp
2014-07-11,0.1494259983,12.shp
2014-07-11,0.1655953377,2.shp
2014-07-11,0.1680172831,5.shp
2015-05-11,0.1454890072,4.shp
2015-05-11,0.1639804244,8.shp
2015-05-11,0.1460729837,10.shp
2015-05-11,0.1614177227,16.shp
2015-05-11,0.1499786377,7.shp
2015-05-11,0.1667851955,6.shp
2015-05-11,0.1695231199,11.shp
2015-05-11,0.1530950665,14.shp
2015-05-11,0.1450958103,3.shp
2015-05-11,0.1675694138,17.shp
2015-05-11,0.1619583815,15.shp
2015-05-11,0.1520018727,9.shp
2015-05-11,0.1802604645,13.shp
2015-05-11,0.1409849823,12.shp
2015-05-11,0.1386060119,2.shp
2015-05-11,0.1555584222,5.shp
2010-06-14,0.1948939264,4.shp
2010-06-14,0.2281574011,8.shp
2010-06-14,0.1729816645,10.shp
2010-06-14,0.2102992982,16.shp
2010-06-14,0.2176622152,7.shp
2010-06-14,0.2338747829,6.shp
2010-06-14,0.2339634895,11.shp
2010-06-14,0.1896933913,14.shp
2010-06-14,0.222699374,3.shp
2010-06-14,0.2476117462,17.shp
2010-06-14,0.2099007368,15.shp
2010-06-14,0.2093613148,9.shp
2010-06-14,0.227965191,13.shp
2010-06-14,0.2071884573,12.shp
2010-06-14,0.2108763903,2.shp
2010-06-14,0.2212397009,5.shp
2010-06-30,0.1819358319,4.shp
2010-06-30,0.2250262201,8.shp
2010-06-30,0.1657700092,10.shp
2010-06-30,0.2068321705,16.shp
2010-06-30,0.2191815972,7.shp
2010-06-30,0.2300977111,6.shp
2010-06-30,0.2245899588,11.shp
2010-06-30,0.1862337887,14.shp
2010-06-30,0.213637054,3.shp
2010-06-30,0.247957468,17.shp
2010-06-30,0.2042787075,15.shp
2010-06-30,0.1961591542,9.shp
2010-06-30,0.2147324085,13.shp
2010-06-30,0.2052614093,12.shp
2010-06-30,0.2155240923,2.shp
2010-06-30,0.2187089324,5.shp
2015-06-28,0.1832346469,4.shp
2015-06-28,0.1872209013,8.shp
2015-06-28,0.1533207446,10.shp
2015-06-28,0.1904140413,16.shp
2015-06-28,0.183601588,7.shp
2015-06-28,0.1851382405,6.shp
2015-06-28,0.2005100548,11.shp
2015-06-28,0.1753699631,14.shp
2015-06-28,0.1914860457,3.shp
2015-06-28,0.184992075,17.shp
2015-06-28,0.1890489012,15.shp
2015-06-28,0.1856806725,9.shp
2015-06-28,0.2069782615,13.shp
2015-06-28,0.1744965017,12.shp
2015-06-28,0.2017751336,2.shp
2015-06-28,0.1799378991,5.shp
2008-05-07,0.186152488,4.shp
2008-05-07,0.2216638029,8.shp
2008-05-07,0.1692585349,10.shp
2008-05-07,0.2176184356,16.shp
2008-05-07,0.2137023807,7.shp
2008-05-07,0.2240167409,6.shp
2008-05-07,0.225193873,11.shp
2008-05-07,0.1935549378,14.shp
2008-05-07,0.1976872087,3.shp
2008-05-07,0.2410440743,17.shp
2008-05-07,0.2059740424,15.shp
2008-05-07,0.2055495232,9.shp
2008-05-07,0.2143673599,13.shp
2008-05-07,0.1814287603,12.shp
2008-05-07,0.1781458408,2.shp
2008-05-07,0.215740636,5.shp
2010-07-08,0.1898198128,4.shp
2010-07-08,0.2381765693,8.shp
2010-07-08,0.1929076761,10.shp
2010-07-08,0.2214212865,16.shp
2010-07-08,0.2364272624,7.shp
2010-07-08,0.241090849,6.shp
2010-07-08,0.2387522012,11.shp
2010-07-08,0.2019142807,14.shp
2010-07-08,0.2247758657,3.shp
2010-07-08,0.2617804408,17.shp
2010-07-08,0.2172748297,15.shp
2010-07-08,0.2035328448,9.shp
2010-07-08,0.2363417745,13.shp
2010-07-08,0.2001675665,12.shp
2010-07-08,0.216144979,2.shp
2010-07-08,0.2176940441,5.shp
2009-05-18,0.1863806248,4.shp
2009-05-18,0.2365668714,8.shp
2009-05-18,0.1702664495,10.shp
2009-05-18,0.2214498073,16.shp
2009-05-18,0.2289469391,7.shp
2009-05-18,0.239310205,6.shp
2009-05-18,0.2380623966,11.shp
2009-05-18,0.2131050229,14.shp
2009-05-18,0.2225334644,3.shp
2009-05-18,0.2606838048,17.shp
2009-05-18,0.2233224511,15.shp
2009-05-18,0.2034620941,9.shp
2009-05-18,0.2326926291,13.shp
2009-05-18,0.2226567864,12.shp
2009-05-18,0.2198592424,2.shp
2009-05-18,0.2265738696,5.shp
2009-06-11,0.2134446651,4.shp
2009-06-11,0.244867906,8.shp
2009-06-11,0.1854268312,10.shp
2009-06-11,0.2401356995,16.shp
2009-06-11,0.2471667528,7.shp
2009-06-11,0.2574900389,6.shp
2009-06-11,0.2643446922,11.shp
2009-06-11,0.2303592563,14.shp
2009-06-11,0.245672971,3.shp
2009-06-11,0.2802273929,17.shp
2009-06-11,0.2460699081,15.shp
2009-06-11,0.2127525955,9.shp
2009-06-11,0.2731874287,13.shp
2009-06-11,0.2324226201,12.shp
2009-06-11,0.2380016297,2.shp
2009-06-11,0.2391337901,5.shp
2008-06-16,0.1964912564,4.shp
2008-06-16,0.2096050531,8.shp
2008-06-16,0.1827540696,10.shp
2008-06-16,0.2243781388,16.shp
2008-06-16,0.2228545994,7.shp
2008-06-16,0.1882769465,6.shp
2008-06-16,0.2331703007,11.shp
2008-06-16,0.2120681405,14.shp
2008-06-16,0.2286356241,3.shp
2008-06-16,0.1351540685,17.shp
2008-06-16,0.2127988338,15.shp
2008-06-16,0.2038619816,9.shp
2008-06-16,0.2382480055,13.shp
2008-06-16,0.2094681859,12.shp
2008-06-16,0.2177599072,2.shp
2008-06-16,0.2364446968,5.shp
2016-06-06,,4.shp
2016-06-06,0.1534152329,8.shp
2016-06-06,,10.shp
2016-06-06,,16.shp
2016-06-06,,7.shp
2016-06-06,0.1634011269,6.shp
2016-06-06,,11.shp
2016-06-06,,14.shp
2016-06-06,,3.shp
2016-06-06,0.177765891,17.shp
2016-06-06,0.1705502421,15.shp
2016-06-06,,9.shp
2016-06-06,,13.shp
2016-06-06,,12.shp
2016-06-06,,2.shp
2016-06-06,,5.shp
2011-07-03,0.1117711663,4.shp
2011-07-03,0.0807592422,8.shp
2011-07-03,0.1386692226,10.shp
2011-07-03,0.0852264985,16.shp
2011-07-03,0.1104419306,7.shp
2011-07-03,0.0806951299,6.shp
2011-07-03,0.1189253405,11.shp
2011-07-03,0.1040904075,14.shp
2011-07-03,0.0984357968,3.shp
2011-07-03,0.0838823169,17.shp
2011-07-03,0.0955401585,15.shp
2011-07-03,0.138193354,9.shp
2011-07-03,0.0832203329,13.shp
2011-07-03,0.1039585471,12.shp
2011-07-03,0.0884222239,2.shp
2011-07-03,0.0898728892,5.shp
2012-06-27,0.1290812194,4.shp
2012-06-27,0.1411111653,8.shp
2012-06-27,,10.shp
2012-06-27,0.1464844644,16.shp
2012-06-27,0.1546675116,7.shp
2012-06-27,0.1369267702,6.shp
2012-06-27,0.1550895721,11.shp
2012-06-27,0.1348279566,14.shp
2012-06-27,0.1506096274,3.shp
2012-06-27,0.1375200599,17.shp
2012-06-27,0.1541013122,15.shp
2012-06-27,0.1558287889,9.shp
2012-06-27,,13.shp
2012-06-27,0.1322012246,12.shp
2012-06-27,0.1308106631,2.shp
2012-06-27,0.1379886866,5.shp
2009-05-26,,4.shp
2009-05-26,,8.shp
2009-05-26,,10.shp
2009-05-26,0.2207172811,16.shp
2009-05-26,,7.shp
2009-05-26,,6.shp
2009-05-26,,11.shp
2009-05-26,0.2093733698,14.shp
2009-05-26,,3.shp
2009-05-26,0.1881021857,17.shp
2009-05-26,0.2201097459,15.shp
2009-05-26,,9.shp
2009-05-26,,13.shp
2009-05-26,,12.shp
2009-05-26,,2.shp
2009-05-26,0.2255746126,5.shp
2014-06-25,0.1643071622,4.shp
2014-06-25,0.1609034538,8.shp
2014-06-25,0.150549978,10.shp
2014-06-25,0.15657112,16.shp
2014-06-25,0.1715916395,7.shp
2014-06-25,0.156995222,6.shp
2014-06-25,0.1746888757,11.shp
2014-06-25,0.1435208321,14.shp
2014-06-25,0.1574317068,3.shp
2014-06-25,0.1626364738,17.shp
2014-06-25,0.1578081697,15.shp
2014-06-25,0.1903776824,9.shp
2014-06-25,0.160001874,13.shp
2014-06-25,0.1418780386,12.shp
2014-06-25,0.1535569578,2.shp
2014-06-25,0.1562403888,5.shp
2011-06-25,0.1592567563,4.shp
2011-06-25,,8.shp
2011-06-25,0.1503607184,10.shp
2011-06-25,0.1773180664,16.shp
2011-06-25,0.1877436042,7.shp
2011-06-25,,6.shp
2011-06-25,0.1894927472,11.shp
2011-06-25,0.1616601497,14.shp
2011-06-25,,3.shp
2011-06-25,,17.shp
2011-06-25,,15.shp
2011-06-25,0.1736131161,9.shp
2011-06-25,0.1925855875,13.shp
2011-06-25,0.166368261,12.shp
2011-06-25,0.1788612902,2.shp
2011-06-25,0.1859307885,5.shp
2011-07-19,0.1165873483,4.shp
2011-07-19,0.0834154785,8.shp
2011-07-19,0.139414981,10.shp
2011-07-19,0.0957463533,16.shp
2011-07-19,0.1113616526,7.shp
2011-07-19,0.0883261934,6.shp
2011-07-19,0.1138127148,11.shp
2011-07-19,0.1063141897,14.shp
2011-07-19,0.1056690887,3.shp
2011-07-19,0.0915337801,17.shp
2011-07-19,0.0968017206,15.shp
2011-07-19,0.113792561,9.shp
2011-07-19,0.103588663,13.shp
2011-07-19,0.0946390629,12.shp
2011-07-19,0.0955469981,2.shp
2011-07-19,0.0979094133,5.shp
