,10.shp,11.shp,12.shp,13.shp,14.shp,15.shp,16.shp,17.shp,2.shp,3.shp,4.shp,5.shp,6.shp,7.shp,8.shp,9.shp,",",',',,,,,,,,,,,,,,
2008-05-07,0.1692585349,0.225193873,0.1814287603,0.2143673599,0.1935549378,0.2059740424,0.2176184356,0.2410440743,0.1781458408,0.1976872087,0.186152488,0.215740636,0.2240167409,0.2137023807,0.2216638029,0.2055495232,,'10.shp','11.shp','12.shp','13.shp','14.shp','15.shp','16.shp','17.shp','2.shp','3.shp','4.shp','5.shp','6.shp','7.shp','8.shp','9.shp'
2008-05-31,0.1925238669,,0.2194772959,0.255328387,,,0.2459116727,,,,0.2080089152,0.2447549403,,0.2522881925,,0.2213936895,,,,,,,,,,,,,,,,,
2008-06-08,0.1712422669,0.2306479663,0.219332844,0.2306564152,0.2104485482,0.2183647156,0.2219610512,0.2475961745,0.2146742642,0.2213967443,0.1914918423,0.2291573286,0.2402079254,0.2213014364,0.2449883074,0.2075418234,,,,,,,,,,,,,,,,,
2008-06-16,0.1827540696,0.2331703007,0.2094681859,0.2382480055,0.2120681405,0.2127988338,0.2243781388,0.1351540685,0.2177599072,0.2286356241,0.1964912564,0.2364446968,0.1882769465,0.2228545994,0.2096050531,0.2038619816,,'10.shp','10.shp',,,,,,,,,,,,,,
2008-06-24,0.166434139,0.2143183053,0.2109569311,0.2300852835,0.2021437436,0.2078820616,0.214029029,0.2494692951,0.2091777921,0.2132621706,0.193365097,0.2195011526,0.2341514975,0.213239342,0.2324991226,0.2100790292,,'11.shp',"'10.shp','11.shp'",,,,,,,,,,,,,,
2008-07-10,0.1671144366,0.2401994467,0.2041851729,0.2409032881,0.2014071792,0.208471477,0.2056061029,0.2536240518,0.2159349769,0.225646764,0.1955495775,0.2176055908,0.2407644242,0.2204181403,0.2466924787,0.2042979002,,'12.shp',"'10.shp','11.shp','12.shp'",,,,,,,,,,,,,,
2008-07-18,0.1843771189,0.2468657643,0.2283762097,0.2479531467,0.2168509066,0.2284499258,0.2386477441,0.2667507529,0.2211927623,0.2401871085,0.2045060992,0.2418622226,0.2544008195,0.2217966914,0.252674073,0.2229406834,,'13.shp',"'10.shp','11.shp','12.shp','13.shp'",,,,,,,,,,,,,,
2008-08-03,0.1969428062,0.2346022427,0.2055328488,0.2295176983,0.2196808904,0.2226583809,0.2342683822,0.2619977593,0.2288894653,0.2152836323,0.1887293458,0.2391368449,0.2502948046,0.2181504071,0.2536700368,0.2094677091,,'14.shp',"'10.shp','11.shp','12.shp','13.shp','14.shp'",,,,,,,,,,,,,,
2009-05-10,0.1742506772,0.2286802679,0.2060850263,0.2277532071,0.2038616091,0.2210381031,0.2182847261,0.2520145774,0.2131355256,0.2187981457,0.1811252832,0.2269545496,0.232780844,0.2174533308,0.2245613188,0.1903443038,,'15.shp',"'10.shp','11.shp','12.shp','13.shp','14.shp','15.shp'",,,,,,,,,,,,,,
2009-05-18,0.1702664495,0.2380623966,0.2226567864,0.2326926291,0.2131050229,0.2233224511,0.2214498073,0.2606838048,0.2198592424,0.2225334644,0.1863806248,0.2265738696,0.239310205,0.2289469391,0.2365668714,0.2034620941,,'16.shp',"'10.shp','11.shp','12.shp','13.shp','14.shp','15.shp','16.shp'",,,,,,,,,,,,,,
2009-05-26,,,,,0.2093733698,0.2201097459,0.2207172811,0.1881021857,,,,0.2255746126,,,,,,'17.shp',"'10.shp','11.shp','12.shp','13.shp','14.shp','15.shp','16.shp','17.shp'",,,,,,,,,,,,,,
2009-06-03,,,,,,,,,,,,,,,,,,'2.shp',"'10.shp','11.shp','12.shp','13.shp','14.shp','15.shp','16.shp','17.shp','2.shp'",,,,,,,,,,,,,,
2009-06-11,0.1854268312,0.2643446922,0.2324226201,0.2731874287,0.2303592563,0.2460699081,0.2401356995,0.2802273929,0.2380016297,0.245672971,0.2134446651,0.2391337901,0.2574900389,0.2471667528,0.244867906,0.2127525955,,'3.shp',"'10.shp','11.shp','12.shp','13.shp','14.shp','15.shp','16.shp','17.shp','2.shp','3.shp'",,,,,,,,,,,,,,
2009-06-19,0.1768449694,0.2429547608,0.2324140072,0.2509096563,0.2226478755,0.2353799492,0.2340081036,0.270847559,0.2279551774,0.2362945825,0.1991307884,0.2331539094,0.2511753738,0.2336281538,0.2515668571,0.2152313292,,'4.shp',"'10.shp','11.shp','12.shp','13.shp','14.shp','15.shp','16.shp','17.shp','2.shp','3.shp','4.shp'",,,,,,,,,,,,,,
2009-06-27,0.1787928939,0.2396553755,0.2127710432,0.2404526174,0.2147148103,0.2270976156,0.2253781557,0.2625254393,0.2170115262,0.2286112905,0.1916970313,0.2328288704,0.2406853437,0.2209731042,0.2403193116,0.2081709951,,'5.shp',"'10.shp','11.shp','12.shp','13.shp','14.shp','15.shp','16.shp','17.shp','2.shp','3.shp','4.shp','5.shp'",,,,,,,,,,,,,,
2009-07-05,0.1837089211,0.2607077658,0.2315391302,0.2617028058,0.1988438964,0.2413115948,0.243903324,0.2669562101,0.2363174707,0.2483810037,0.2095135301,0.2330614924,,0.2394756675,,0.2094530612,,'6.shp',"'10.shp','11.shp','12.shp','13.shp','14.shp','15.shp','16.shp','17.shp','2.shp','3.shp','4.shp','5.shp','6.shp'",,,,,,,,,,,,,,
2009-07-13,0.1719674021,0.2258981168,0.1989856362,0.2323488593,0.1623441577,0.2112582922,0.2130319327,0.2463642508,0.2087764144,0.2187348753,0.1873264313,0.2118024975,0.2349732816,0.2105020881,0.2368256152,0.1940013766,,'7.shp',"'10.shp','11.shp','12.shp','13.shp','14.shp','15.shp','16.shp','17.shp','2.shp','3.shp','4.shp','5.shp','6.shp','7.shp'",,,,,,,,,,,,,,
2009-07-29,0.1758696139,0.2509560585,0.2252571583,0.2501628399,0.1773370802,0.2212147564,0.2248129547,0.2604641914,0.2294211239,0.2375215739,0.1959590614,0.2200767249,0.2444856018,0.2219382524,0.2426057458,0.2068350464,,'8.shp',"'10.shp','11.shp','12.shp','13.shp','14.shp','15.shp','16.shp','17.shp','2.shp','3.shp','4.shp','5.shp','6.shp','7.shp','8.shp'",,,,,,,,,,,,,,
2010-05-05,0.1974053234,0.2323034704,0.2061017305,0.2324482054,0.1821761578,0.2191057652,0.2343922108,0.2435842603,0.2097000331,0.2264441848,0.1963347793,0.2181471735,,0.248247847,,0.2355997562,,'9.shp',"'10.shp','11.shp','12.shp','13.shp','14.shp','15.shp','16.shp','17.shp','2.shp','3.shp','4.shp','5.shp','6.shp','7.shp','8.shp','9.shp'",,,,,,,,,,,,,,
2010-05-13,0.1678115129,0.1904644966,0.1823731959,0.1862741858,,,0.1737909317,0.1847486794,0.1806872487,0.1848307997,0.1701086909,,0.1813315004,0.1946427971,0.1819142997,0.1825558841,,,,,,,,,,,,,,,,,
2010-05-21,0.1867328435,0.2788479924,0.2388372421,0.2777846754,0.2010364085,0.2610885799,0.2751906216,0.286611706,0.2636826336,0.2604010403,0.2293803394,0.2536959648,,0.2565439343,,0.240186125,,,,,,,,,,,,,,,,,
2010-05-29,0.1734709442,0.2587632835,0.2316456139,0.2532877028,0.1949145943,0.2359073311,0.2399304211,0.2666671276,0.2379915118,0.2417933196,0.2009245306,0.2370129973,0.2574410737,0.2327147573,0.2513366938,0.2258526385,,,,,,,,,,,,,,,,,
2010-06-06,0.175305903,0.2431398779,0.1997631788,0.2408272326,0.185976997,0.2195101231,0.2168615758,0.2513518035,0.2215968072,0.2246021926,0.1826679111,0.2230602056,0.234793365,0.2305613905,0.237377584,0.2033151537,,,,,,,,,,,,,,,,,
2010-06-14,0.1729816645,0.2339634895,0.2071884573,0.227965191,0.1896933913,0.2099007368,0.2102992982,0.2476117462,0.2108763903,0.222699374,0.1948939264,0.2212397009,0.2338747829,0.2176622152,0.2281574011,0.2093613148,,,,,,,,,,,,,,,,,
2010-06-30,0.1657700092,0.2245899588,0.2052614093,0.2147324085,0.1862337887,0.2042787075,0.2068321705,0.247957468,0.2155240923,0.213637054,0.1819358319,0.2187089324,0.2300977111,0.2191815972,0.2250262201,0.1961591542,,,,,,,,,,,,,,,,,
2010-07-08,0.1929076761,0.2387522012,0.2001675665,0.2363417745,0.2019142807,0.2172748297,0.2214212865,0.2617804408,0.216144979,0.2247758657,0.1898198128,0.2176940441,0.241090849,0.2364272624,0.2381765693,0.2035328448,,,,,,,,,,,,,,,,,
2010-07-16,0.1671144366,0.2174279988,0.1983961761,0.2209448963,0.1849965453,0.2004599124,0.1947172433,0.2442371547,0.2054615915,0.20619376,0.1862586439,0.2112031877,0.2235710025,0.2048736513,0.2167698443,0.1924780011,,,,,,,,,,,,,,,,,
2011-05-08,0.1558287889,0.2021037191,0.1798243225,0.1946194768,0.1761761755,0.1876592636,0.1885669976,0.2208160311,0.1778613627,0.1991812289,0.1713266224,0.1943654716,0.2062323987,0.2010325491,0.2096442729,0.1964425296,,,,,,,,,,,,,,,,,
2011-06-09,,,,,,0.1850147247,,0.217881754,,,,,0.2038608193,,0.2079670131,,,,,,,,,,,,,,,,,,
2011-06-17,0.1585041732,0.1813389659,0.1588976383,0.1822532713,0.1524644196,0.1677649468,0.1696595252,0.2004457712,0.1742297709,0.1824137419,0.1519373655,0.1701256335,0.1870058477,0.1776800603,0.1870234311,0.1640661508,,,,,,,,,,,,,,,,,
2011-06-25,0.1503607184,0.1894927472,0.166368261,0.1925855875,0.1616601497,,0.1773180664,,0.1788612902,,0.1592567563,0.1859307885,,0.1877436042,,0.1736131161,,,,,,,,,,,,,,,,,
2011-07-03,0.1386692226,0.1189253405,0.1039585471,0.0832203329,0.1040904075,0.0955401585,0.0852264985,0.0838823169,0.0884222239,0.0984357968,0.1117711663,0.0898728892,0.0806951299,0.1104419306,0.0807592422,0.138193354,,,,,,,,,,,,,,,,,
2011-07-11,,0.1321475506,0.1071120426,,0.1115906388,0.1206459031,,0.0899802968,0.1075840145,0.107551977,0.1136524752,0.083603099,0.0917118043,0.1253821254,0.0904317796,,,,,,,,,,,,,,,,,,
2011-07-19,0.139414981,0.1138127148,0.0946390629,0.103588663,0.1063141897,0.0968017206,0.0957463533,0.0915337801,0.0955469981,0.1056690887,0.1165873483,0.0979094133,0.0883261934,0.1113616526,0.0834154785,0.113792561,,,,,,,,,,,,,,,,,
2011-07-27,0.1393874586,,0.112491563,0.1096033975,,,0.1104865819,,0.1217936724,,0.1162093356,0.1095353514,,0.122722432,,0.1233831346,,,,,,,,,,,,,,,,,
2012-05-10,,,,,,0.1473433971,,0.137351051,,0.1363996416,,,0.1407129169,,0.1410876215,,,,,,,,,,,,,,,,,,
2012-05-26,0.1589580476,0.179913193,0.1569929421,0.1432502121,0.1639855504,0.1692507863,0.1629510224,0.1629417539,0.1390103847,0.1588146985,0.1556698084,0.1728089303,0.1629190594,0.1732235253,0.1647116542,0.1786694378,,,,,,,,,,,,,,,,,
2012-06-11,0.1515921205,,0.13686122,0.1291133016,,,0.1422329247,,,,0.1405453831,0.1446054429,,0.1481573284,,0.1462632269,,,,,,,,,,,,,,,,,
2012-06-27,,0.1550895721,0.1322012246,,0.1348279566,0.1541013122,0.1464844644,0.1375200599,0.1308106631,0.1506096274,0.1290812194,0.1379886866,0.1369267702,0.1546675116,0.1411111653,0.1558287889,,,,,,,,,,,,,,,,,
2012-07-29,0.1505890191,,,0.1276787519,,,,,,,,,,,0.13966313,0.1519450694,,,,,,,,,,,,,,,,,
2013-06-06,0.1233125553,0.1048433408,0.1040210724,0.1054923087,0.1074774787,0.1101372764,0.100042738,0.1089701578,0.1047116071,0.1009733677,0.109114334,0.1089786142,0.1076879501,0.1108710021,0.1092689484,0.1164605916,,,,,,,,,,,,,,,,,
2013-06-22,0.0934146568,0.1069304049,0.088449508,0.0901088566,0.1022750512,0.1073152795,0.0937487632,0.0851587057,0.0850516781,0.0989623368,0.0952348784,0.1007189155,0.0821522623,0.0980889127,0.0841671824,0.0949923992,,,,,,,,,,,,,,,,,
2013-07-08,0.1278488189,0.1364830583,0.1160993874,0.1120969951,0.1176606417,0.1237030998,0.1154736504,0.1200961545,0.1140071154,0.1244275868,0.1240690351,0.1163079739,0.114611052,0.134630084,0.1125333309,0.1291436106,,,,,,,,,,,,,,,,,
2013-07-24,,,,,,,,,,,,,,,,,,,,,,,,,,,,,,,,,
2014-06-01,,0.1968348324,0.1724133193,,0.1809099317,0.197821781,,0.1977183819,0.165015325,0.1824980229,,0.1973700225,0.2025856078,,0.2144414485,,,,,,,,,,,,,,,,,,
2014-06-09,0.1451948136,0.1764035523,0.1502615809,0.1639899611,0.1527053714,0.1695680171,0.1641417593,0.1776551604,0.1497994959,0.1621490419,0.1650022119,0.1700660586,0.1753020287,0.1728433669,0.1801504642,0.1899527907,,,,,,,,,,,,,,,,,
2014-06-25,0.150549978,0.1746888757,0.1418780386,0.160001874,0.1435208321,0.1578081697,0.15657112,0.1626364738,0.1535569578,0.1574317068,0.1643071622,0.1562403888,0.156995222,0.1715916395,0.1609034538,0.1903776824,,,,,,,,,,,,,,,,,
2014-07-11,0.1550779939,0.1874664724,0.1494259983,0.1696920991,0.1571848691,0.1712872535,0.1868737489,0.1680936962,0.1655953377,0.170576483,0.1756591499,0.1680172831,0.1684741229,0.1806060374,0.1702508479,0.1944831163,,,,,,,,,,,,,,,,,
2014-07-27,0.1924584359,0.2260342836,0.1845809221,0.2058975697,0.1820081174,0.1959589869,0.2049413621,0.1942081302,0.1972093582,0.2033499181,0.2083902955,0.1967611164,0.1954246908,0.2250837088,0.2038461119,0.2384249717,,,,,,,,,,,,,,,,,
2015-05-11,0.1460729837,0.1695231199,0.1409849823,0.1802604645,0.1530950665,0.1619583815,0.1614177227,0.1675694138,0.1386060119,0.1450958103,0.1454890072,0.1555584222,0.1667851955,0.1499786377,0.1639804244,0.1520018727,,,,,,,,,,,,,,,,,
2015-05-27,0.1554370672,0.1971189827,0.1661353409,0.2421888709,0.1892184615,0.199015215,0.2046616077,0.2139819413,0.1676584333,0.1685776412,0.1680780649,0.1991572082,0.2169709206,0.174889341,0.2211638838,0.1719148606,,,,,,,,,,,,,,,,,
2015-06-04,0.183463037,0.228369683,0.2125092745,0.2690766454,0.2226788998,0.239080444,0.249334842,0.2500243187,0.2200680226,0.2098869681,0.2126442492,0.2437859476,0.2493867874,0.2218407989,0.2519007325,0.2041512728,,,,,,,,,,,,,,,,,
2015-06-28,0.1533207446,0.2005100548,0.1744965017,0.2069782615,0.1753699631,0.1890489012,0.1904140413,0.184992075,0.2017751336,0.1914860457,0.1832346469,0.1799378991,0.1851382405,0.183601588,0.1872209013,0.1856806725,,,,,,,,,,,,,,,,,
2016-05-29,0.1431308538,0.1657582968,0.1439779699,0.1505831033,0.1510990262,0.1663936526,0.15256311,0.1640767902,0.1495692134,0.1591617018,0.141410023,0.1529417634,0.1515680701,0.1533033103,0.1439479291,0.1587991863,,,,,,,,,,,,,,,,,
2016-06-06,,,,,,0.1705502421,,0.177765891,,,,,0.1634011269,,0.1534152329,,,,,,,,,,,,,,,,,,
2016-06-14,0.135248363,0.155903101,0.1338904798,0.1379975677,0.1371084601,0.1495665908,0.1375967562,0.1463425457,0.1370037347,0.1505378336,0.1327112019,0.1345839947,0.1377938986,0.1409726441,0.130091548,0.1478982121,,,,,,,,,,,,,,,,,
